{
  "priority": 2,
  "request": {
    "method": "POST",
    "urlPathPattern": "/enterprise-workorder-service_V2/services/workorder"
  },
  "response": {
    "status": 200,
    "headers": {
      "Content-Type": "application/json"
    },
    "bodyFileName": "enterpriseworkorder/update-schedule-[SUCCESS].xml"
  }
}